[
  {
    "type": "stack",
    "title": "PhotoShow",
    "description": "Piwigo is photo gallery software for the web, built by an active community of users and developers. Freely available extensions make Piwigo easily customizable. It is notable as a system with many features.",
    "note": "Deploys an Piwigo instance connected to a MariaDB database.",
    "categories": ["Gallery"],
    "platform": "linux",
    "logo": "https://raw.githubusercontent.com/linuxserver/docker-templates/master/linuxserver.io/img/photoshow-icon.png",
    "repository":
      {
      "url": "https://framagit.org/linuq/easy-pi-hosting-template",
      "stackfile": "stacks/photoshow/docker-stack.yml"
      },
    "env": [
      {
        "name": "TRAEFIK_HOSTNAME",
        "label": "Virtual Host name",
        "description": "Host name use to reach that service."
      }
    ]
  },
  {
    "type": "stack",
    "title": "Lychee",
    "description": "Piwigo is photo gallery software for the web, built by an active community of users and developers. Freely available extensions make Piwigo easily customizable. It is notable as a system with many features.",
    "note": "Deploys an Piwigo instance connected to a MariaDB database.",
    "categories": ["Gallery"],
    "platform": "linux",
    "logo": "https://pbs.twimg.com/profile_images/584829544235982848/5CA1VEqd_400x400.png",
    "repository":
      {
      "url": "https://framagit.org/linuq/easy-pi-hosting-template",
      "stackfile": "stacks/lychee/docker-stack.yml"
      },
    "env": [
      {
        "name": "TRAEFIK_HOSTNAME",
        "label": "Virtual Host name",
        "description": "Host name use to reach that service."
      },
      {
        "name": "ADMINER_URL",
        "label": "Url used to reach Adminer",
        "description": "Url use to reach the Adminer for that service (i.e. https://hostname/url)."
      },
      {
        "name": "MYSQL_USER",
        "label": "Database username",
        "description": "Username for Mysql database."
      },
      {
        "name": "MYSQL_PASSWORD",
        "label": "Database password for user",
        "description": "Password used by the user."
      },
      {
        "name": "MYSQL_ROOT_PASSWORD",
        "label": "Database password for root user",
        "description": "Password used by the root user."
      }
    ]
  },
  {
    "type": "stack",
    "title": "Piwigo",
    "description": "Piwigo is photo gallery software for the web, built by an active community of users and developers. Freely available extensions make Piwigo easily customizable. It is notable as a system with many features.",
    "note": "Deploys an Piwigo instance connected to a MariaDB database.",
    "categories": ["Gallery"],
    "platform": "linux",
    "logo": "https://raw.githubusercontent.com/linuxserver/docker-templates/master/linuxserver.io/img/piwigo-banner.png",
    "repository":
      {
      "url": "https://framagit.org/linuq/easy-pi-hosting-template",
      "stackfile": "stacks/piwigo/docker-stack.yml"
      },
    "env": [
      {
        "name": "TRAEFIK_HOSTNAME",
        "label": "Virtual Host name",
        "description": "Host name use to reach that service."
      },
      {
        "name": "ADMINER_URL",
        "label": "Url used to reach Adminer",
        "description": "Url use to reach the Adminer for that service (i.e. https://hostname/url)."
      },
      {
        "name": "MYSQL_USER",
        "label": "Database username",
        "description": "Username for Mysql database."
      },
      {
        "name": "MYSQL_PASSWORD",
        "label": "Database password for user",
        "description": "Password used by the user."
      },
      {
        "name": "MYSQL_ROOT_PASSWORD",
        "label": "Database password for root user",
        "description": "Password used by the root user."
      }
    ]
  },
  {
    "type": "stack",
    "title": "Odoo",
    "description": "Odoo is an all-in-one management software that offers a range of business applications that form a complete suite of enterprise management applications targeting companies of all sizes. Odoo is an all-in-one business software including CRM, website/e-commerce, billing, accounting, manufacturing, warehouse - and project management, and inventory",
    "note": "Deploys an Odoo instance connected to a Postgres database.",
    "categories": ["ERP"],
    "platform": "linux",
    "logo": "https://encrypted-tbn0.gstatic.com/images?q=tbn:ANd9GcQUo5GGPLcYdEUhLzeGA4DX-pmJW2q9gEYvtAimIMaMOOqCbI8B",
    "repository":
      {
      "url": "https://framagit.org/linuq/easy-pi-hosting-template",
      "stackfile": "stacks/odoo/docker-stack.yml"
      },
    "env": [
      {
        "name": "TRAEFIK_HOSTNAME",
        "label": "Virtual Host name",
        "description": "Host name use to reach that service."
      },
      {
        "name": "PHPPGADMIN_URL",
        "label": "Url used to reach PhpPGAdmin",
        "description": "Url use to reach that service (i.e. https://hostname/url)."
      },
      {
        "name": "POSTGRES_USER",
        "label": "Database username",
        "description": "Username for Postgres root user."
      },
      {
        "name": "POSTGRES_PASSWORD",
        "label": "Database password",
        "description": "Password used by the Postgres root user."
      }
    ]
  },
  {
    "type": "stack",
    "title": "Nextcloud",
    "description": "A safe home for all your data. Access & share your files, calendars, contacts, mail & more from any device, on your terms.",
    "note": "Deploys a NextCloud instance connected to a Postgres database.",
    "categories": ["CMS"],
    "platform": "linux",
    "logo": "https://upload.wikimedia.org/wikipedia/commons/thumb/6/60/Nextcloud_Logo.svg/1200px-Nextcloud_Logo.svg.png",
    "repository":
      {
      "url": "https://framagit.org/linuq/easy-pi-hosting-template",
      "stackfile": "stacks/nextcloud/docker-stack.yml"
      },
    "env": [
      {
        "name": "TRAEFIK_HOSTNAME",
        "label": "Virtual Host name",
        "description": "Host name use to reach that service."
      },
      {
        "name": "POSTGRES_USER",
        "label": "Database username",
        "description": "Username for Postgres root user."
      },
      {
        "name": "POSTGRES_PASSWORD",
        "label": "Database password",
        "description": "Password used by the Postgres root user."
      },
      {
        "name": "NEXTCLOUD_USER",
        "label": "NextCloud admin username",
        "description": "Username for NextCloud admin user."
      },
      {
        "name": "NEXTCLOUD_PASSWORD",
        "label": "NextCloud admin password",
        "description": "Password used by the NextCloud admin user."
      }
    ]
  },
  {
    "type": "stack",
    "title": "Dokuwiki",
    "description": "DokuWiki is a simple to use and highly versatile Open Source wiki software that doesn't require a database. It is loved by users for its clean and readable syntax.",
    "note": "Deploys a Dokuwiki instance.",
    "categories": ["CMS"],
    "platform": "linux",
    "logo": "https://www.dokuwiki.org/lib/tpl/dokuwiki/images/logo.png",
    "repository":
      {
      "url": "https://framagit.org/linuq/easy-pi-hosting-template",
      "stackfile": "stacks/dokuwiki/docker-stack.yml"
      },
    "env": [
      {
        "name": "TRAEFIK_HOSTNAME",
        "label": "Virtual Host name",
        "description": "Host name use to reach that service."
      },
      {
        "name": "TRAEFIK_BACKEND",
        "label": "Backend identification name",
        "description": "Unique name used by traefik to identify that service."
      }
    ]
  },
  {
    "type": "stack",
    "title": "Pi-Hole",
    "description": "A black hole for internet advertisements.",
    "note": "Deploys a Pi-Hole instance.",
    "categories": ["Network"],
    "platform": "linux",
    "logo": "https://i2.wp.com/pi-hole.net/wp-content/uploads/2016/12/cropped-Vortex-2.png",
    "repository":
      {
      "url": "https://framagit.org/linuq/easy-pi-hosting-template",
      "stackfile": "stacks/pi-hole/docker-stack.yml"
      },
    "env": [
      {
        "name": "TRAEFIK_HOSTNAME",
        "label": "Virtual Host name",
        "description": "Host name use to reach that service."
      },
      {
        "name": "TRAEFIK_BACKEND",
        "label": "Backend identification name",
        "description": "Unique name used by traefik to identify that service."
      }
    ]
  },
  {
    "type": "stack",
    "title": "Wordpress",
    "description": "WordPress.com powers beautiful websites for businesses, professionals, and bloggers.",
    "note": "Deploys a Wordpress instance.",
    "categories": ["CMS"],
    "platform": "linux",
    "logo": "https://www.cmic.ch/wp-content/uploads/2010/04/xwordpress-logo-stacked-rgb.png.pagespeed.ic.UDltoZTz3o.png",
    "repository":
      {
      "url": "https://framagit.org/linuq/easy-pi-hosting-template",
      "stackfile": "stacks/wordpress/docker-stack.yml"
      },
    "env": [
      {
        "name": "TRAEFIK_HOSTNAME",
        "label": "Virtual Host name",
        "description": "Host name use to reach that service."
      },
      {
        "name": "ADMINER_URL",
        "label": "Url used to reach Adminer",
        "description": "Url use to reach the Adminer for that service (i.e. https://hostname/url)."
      },
      {
        "name": "MYSQL_DATABASE_ROOT_PASSWORD",
        "label": "Database root password",
        "description": "Password for the database user root."
      },
      {
        "name": "MYSQL_DATABASE_PASSWORD",
        "label": "Database word press password",
        "description": "Password for the database user wordpress."
      }
    ]
  }

]
