[
  {
    "type": "stack",
    "title": "CouchPotato",
    "description": "Couchpotato permet aux utilisateurs de News Group ou de Torrent de se faire une liste de souhait de films à télécharger. CouchPotato se chargera de rechercher directement sur les serveurs indexeurs de fichiers NZB ou Torrent et une fois les fichiers trouvés, les envoyer à votre plateforme de téléchargement préférée.",
    "note": "Couchpotato permet aux utilisateurs de News Group ou de Torrent de se faire une liste de souhait de films à télécharger. CouchPotato se chargera de rechercher directement sur les serveurs indexeurs de fichiers NZB ou Torrent et une fois les fichiers trouvés, les envoyer à votre plateforme de téléchargement préférée.  Deploie un piles complexes de Getter de contenu.",
    "categories": ["TEST"],
    "platform": "linux",
    "logo": "https://couchpota.to/media/images/couch.png",
    "repository":
      {
      "url": "https://framagit.org/linuq/easy-pi-hosting-template",
      "stackfile": "stacks/couchpotato/docker-stack-pc.yml"
      },
    "env": [
      {
        "name": "TRAEFIK_HOSTNAME",
        "label": "Nom d'hôte",
        "description": "Nom d'hôte pour se connecter à CouchPotato."
      }
    ]
  },
  {
    "type": "stack",
    "title": "Dokuwiki",
    "description": "DokuWiki est un moteur de wiki libre sous licence GNU GPL conforme aux standards, simple à utiliser, dont le but principal est de créer des documentations de toute sorte.",
    "note": "DokuWiki est un moteur de wiki libre sous licence GNU GPL conforme aux standards, simple à utiliser, dont le but principal est de créer des documentations de toute sorte.  Cette pile déploie seulement un conteneur Dokuwiki.",
    "categories": ["CMS"],
    "platform": "linux",
    "logo": "https://www.dokuwiki.org/lib/tpl/dokuwiki/images/logo.png",
    "repository":
      {
      "url": "https://framagit.org/linuq/easy-pi-hosting-template",
      "stackfile": "stacks/dokuwiki/docker-stack-pc.yml"
      },
    "env": [
      {
        "name": "TRAEFIK_HOSTNAME",
        "label": "Nom d'hôte",
        "description": "Nom d'hôte pour se connecter à Dokuwiki."
      }
    ]
  },
  {
    "type": "stack",
    "title": "Lychee",
    "description": "Lychee est un outil gratuit de gestion de photos, qui fonctionne sur votre serveur ou votre espace web. L'installation est une question de secondes. Télécharger, gérer et partager des photos comme à partir d'une application native. Lychee est livré avec tout ce dont vous avez besoin et toutes vos photos sont stockées en toute sécurité.",
    "note": "Lychee est un outil gratuit de gestion de photos, qui fonctionne sur votre serveur ou votre espace web. L'installation est une question de secondes. Télécharger, gérer et partager des photos comme à partir d'une application native. Lychee est livré avec tout ce dont vous avez besoin et toutes vos photos sont stockées en toute sécurité.  Cette pile déploie un serveur Lychee accompagné d'une base de données MariaDB et de son utilitaire Adminer.",
    "categories": ["Gallerie"],
    "platform": "linux",
    "logo": "https://pbs.twimg.com/profile_images/584829544235982848/5CA1VEqd_400x400.png",
    "repository":
      {
      "url": "https://framagit.org/linuq/easy-pi-hosting-template",
      "stackfile": "stacks/lychee/docker-stack-pc.yml"
      },
    "env": [
      {
        "name": "TRAEFIK_HOSTNAME",
        "label": "Nom d'hôte",
        "description": "Nom d'hôte pour se connecter à Lychee."
      },
      {
        "name": "ADMINER_URL",
        "label": "Url pour atteindre Adminer",
        "description": "Url utilisée pour se connecter au Adminer pour ce service (i.e. https://nomdhote/url)."
      },
      {
        "name": "MYSQL_USER",
        "label": "Nom d'usager MariaDB",
        "description": "Nom d'usager pour la connextion à la base de donnée MariaDB."
      },
      {
        "name": "MYSQL_PASSWORD",
        "label": "Mot de passe pour la base de données",
        "description": "Mot de passe pour l'usager de la base de données MariaDb."
      },
      {
        "name": "MYSQL_ROOT_PASSWORD",
        "label": "Mot de passe pour l'usager root",
        "description": "Mot de passe pour l'usager root du serveur de base de données MariaDB."
      }
    ]
  },
  {
    "type": "stack",
    "title": "Nextcloud",
    "description": "NextCloud est un logiciel libre offrant une plateforme de services de stockage et partage de fichiers et d'applications diverses en ligne. Il est présenté comme une alternative à Dropbox, lequel est basé sur un cloud public. Dans NextCloud, le stockage des données se fait au sein de votre infrastructure et les accès sont soumis à votre politique de sécurité informatique.",
    "note": "NextCloud est un logiciel libre offrant une plateforme de services de stockage et partage de fichiers et d'applications diverses en ligne. Il est présenté comme une alternative à Dropbox, lequel est basé sur un cloud public. Dans NextCloud, le stockage des données se fait au sein de votre infrastructure et les accès sont soumis à votre politique de sécurité informatique.  Cette pile déploie en plus d'un serveur NextCloud, une base de données Postgres et un PhpPgAdmin.",
    "categories": ["Partage"],
    "platform": "linux",
    "logo": "https://upload.wikimedia.org/wikipedia/commons/thumb/6/60/Nextcloud_Logo.svg/1200px-Nextcloud_Logo.svg.png",
    "repository":
      {
      "url": "https://framagit.org/linuq/easy-pi-hosting-template",
      "stackfile": "stacks/nextcloud/docker-stack.yml"
      },
    "env": [
      {
        "name": "TRAEFIK_HOSTNAME",
        "label": "Nom d'hôte",
        "description": "Nom d'hôte pour se connecter à NextCloud."
      },
      {
        "name": "POSTGRES_USER",
        "label": "Nom d'usager pour Postgres",
        "description": "Nom d'usager pour se connecter à Postgres."
      },
      {
        "name": "POSTGRES_PASSWORD",
        "label": "Mot de passe pour la base de données",
        "description": "Mote de passe pour se connecter avec l'utilisateur précédement créé."
      },
      {
        "name": "NEXTCLOUD_USER",
        "label": "Administrateur NextCloud",
        "description": "Nom d'usager de l'administrateur NextCloud."
      },
      {
        "name": "NEXTCLOUD_PASSWORD",
        "label": "Mot de passe administrateur",
        "description": "Mote de passe pour l'administrateur NextCloud."
      }
    ]
  },
  {
    "type": "stack",
    "title": "Odoo",
    "description": "Odoo est initialement un progiciel open-source de gestion intégré comprenant de très nombreux modules permettant de simplifier la gestion d’entreprise dans son ensemble.",
    "note": "Odoo, anciennement OpenERP et Tiny ERP, est initialement un progiciel open-source de gestion intégré comprenant de très nombreux modules permettant de simplifier la gestion d’entreprise dans son ensemble.  Cette pile déploie en plus d'un serveur Odoo, une base de données Postgres et un PhpPgAdmin.",
    "categories": ["ERP"],
    "platform": "linux",
    "logo": "https://encrypted-tbn0.gstatic.com/images?q=tbn:ANd9GcQUo5GGPLcYdEUhLzeGA4DX-pmJW2q9gEYvtAimIMaMOOqCbI8B",
    "repository":
      {
      "url": "https://framagit.org/linuq/easy-pi-hosting-template",
      "stackfile": "stacks/odoo/docker-stack-pc.yml"
      },
    "env": [
      {
        "name": "TRAEFIK_HOSTNAME",
        "label": "Nom d'hôte",
        "description": "Nom d'hôte pour se connecter à Odoo."
      },
      {
        "name": "PHPPGADMIN_URL",
        "label": "Url pour PhpPGAdmin",
        "description": "Url utilisé pour se connecter à PhpPGAdmin (i.e. https://nomdhote/url)."
      },
      {
        "name": "POSTGRES_USER",
        "label": "Nom d'usager pour Postgres",
        "description": "Nom d'usager pour se connecter à Postgres."
      },
      {
        "name": "POSTGRES_PASSWORD",
        "label": "Mot de passe pour la base de données",
        "description": "Mot de passe pour se connecter avec l'utilisateur précédement créé."
      }
    ]
  },
  {
    "type": "stack",
    "title": "Pi-Hole",
    "description": "Pi-hole est un bloqueur de publicité.  Il fonctionne au niveau de la couche DNS et peux donc protéger tous les ordinateurs d'un réseau.",
    "note": "Pi-hole est un bloqueur de publicité.  Il fonctionne au niveau de la couche DNS et peux donc protéger tous les ordinateurs d'un réseau.  Déploie seulement un conteneur Pi-Hole.",
    "categories": ["TEST"],
    "platform": "linux",
    "logo": "https://i2.wp.com/pi-hole.net/wp-content/uploads/2016/12/cropped-Vortex-2.png",
    "repository":
      {
      "url": "https://framagit.org/linuq/easy-pi-hosting-template",
      "stackfile": "stacks/pi-hole/docker-stack-pc.yml"
      },
    "env": [
      {
        "name": "TRAEFIK_HOSTNAME",
        "label": "Nom d'hôte",
        "description": "Nom d'hôte pour se connecter à Pi-Hole."
      }
    ]
  },
  {
    "type": "stack",
    "title": "Piwigo",
    "description": "Piwigo est une application de gestion d'albums photo pour le web, disponible sous licence GPL. Elle est écrite en PHP et nécessite une base de données MySQL.",
    "note": "Piwigo est une application de gestion d'albums photo pour le web, disponible sous licence GPL. Elle est écrite en PHP et nécessite une base de données MySQL.  Cette pile déploie un serveur Piwigo accompagné d'une base de données MariaDB et de son utilitaire Adminer.",
    "categories": ["Gallerie"],
    "platform": "linux",
    "logo": "https://raw.githubusercontent.com/linuxserver/docker-templates/master/linuxserver.io/img/piwigo-banner.png",
    "repository":
      {
      "url": "https://framagit.org/linuq/easy-pi-hosting-template",
      "stackfile": "stacks/piwigo/docker-stack-pc.yml"
      },
    "env": [
      {
        "name": "TRAEFIK_HOSTNAME",
        "label": "Nom d'hôte",
        "description": "Nom d'hôte pour se connecter à Piwigo."
      },
      {
        "name": "ADMINER_URL",
        "label": "Url pour atteindre Adminer",
        "description": "Url utilisée pour se connecter au Adminer pour ce service (i.e. https://nomdhote/url)."
      },
      {
        "name": "MYSQL_USER",
        "label": "Nom d'usager MariaDB",
        "description": "Nom d'usager pour la connextion à la base de donnée MariaDB."
      },
      {
        "name": "MYSQL_PASSWORD",
        "label": "Mot de passe pour la base de données",
        "description": "Mot de passe pour l'usager de la base de données MariaDb."
      },
      {
        "name": "MYSQL_ROOT_PASSWORD",
        "label": "Mot de passe pour l'usager root",
        "description": "Mot de passe pour l'usager root du serveur de base de données MariaDB."
      }
    ]
  },
  {
    "type": "stack",
    "title": "PhotoShow",
    "description": "PhotoShow se base sur le système de fichiers pour gérer les fichiers, et ne requiert donc pas de base de données. Si Javascript est activé sur votre navigateur, la gestion des utilisateurs, albums, et images se fait aisément via glisser-déposer (drag-n-drop), de même que le téléversement (upload) d'images.",
    "note": "PhotoShow se base sur le système de fichiers pour gérer les fichiers, et ne requiert donc pas de base de données. Si Javascript est activé sur votre navigateur, la gestion des utilisateurs, albums, et images se fait aisément via glisser-déposer (drag-n-drop), de même que le téléversement (upload) d'images.  Cette pile n'est composée que d'une image",
    "categories": ["Gallerie"],
    "platform": "linux",
    "logo": "https://raw.githubusercontent.com/linuxserver/docker-templates/master/linuxserver.io/img/photoshow-icon.png",
    "repository":
      {
      "url": "https://framagit.org/linuq/easy-pi-hosting-template",
      "stackfile": "stacks/photoshow/docker-stack-pc.yml"
      },
    "env": [
      {
        "name": "TRAEFIK_HOSTNAME",
        "label": "Nom d'hôte",
        "description": "Nom d'hôte pour se connecter à PhotoShow."
      }
    ]
  },
  {
    "type": "stack",
    "title": "Wordpress",
    "description": "WordPress est un système de gestion de contenu gratuit, libre et open-source. Ce logiciel écrit en PHP repose sur une base de données MySQL.",
    "note": "WordPress est un système de gestion de contenu gratuit, libre et open-source. Ce logiciel écrit en PHP repose sur une base de données MySQL.  Cette pile déploie un serveur Wordpress accompagné d'une base de données MariaDB et de son utilitaire Adminer.",
    "categories": ["CMS"],
    "platform": "linux",
    "logo": "https://www.cmic.ch/wp-content/uploads/2010/04/xwordpress-logo-stacked-rgb.png.pagespeed.ic.UDltoZTz3o.png",
    "repository":
      {
      "url": "https://framagit.org/linuq/easy-pi-hosting-template",
      "stackfile": "stacks/wordpress/docker-stack-pc.yml"
      },
    "env": [
      {
        "name": "TRAEFIK_HOSTNAME",
        "label": "Nom d'hôte",
        "description": "Nom d'hôte pour se connecter à Wordpress."
      },
      {
        "name": "ADMINER_URL",
        "label": "Url pour atteindre Adminer",
        "description": "Url utilisée pour se connecter au Adminer pour ce service (i.e. https://nomdhote/url)."
      },
      {
        "name": "MYSQL_USER",
        "label": "Nom d'usager MariaDB",
        "description": "Nom d'usager pour la connextion à la base de donnée MariaDB."
      },
      {
        "name": "MYSQL_PASSWORD",
        "label": "Mot de passe pour la base de données",
        "description": "Mot de passe pour l'usager de la base de données MariaDb."
      },
      {
        "name": "MYSQL_ROOT_PASSWORD",
        "label": "Mot de passe pour l'usager root",
        "description": "Mot de passe pour l'usager root du serveur de base de données MariaDB."
      }
    ]
  }
]
